Biostat 212A Homework 3
…
lasso_wf <- workflow() %>% add_model(lasso_mod) %>% add_recipe(norm_recipe)
ridge_wf <- workflow() %>% add_model(ridge_mod) %>% add_recipe(norm_recipe)
ls_wf <- workflow() %>% add_model(ls_mod) %>% add_recipe(norm_recipe)

set.seed(42)
folds <- vfold_cv(train_set, v = 5)

lambda_grid <- grid_regular(penalty(range = c(-2, 1.5), 
                                    trans = log10_trans()), 
                                    levels = 100)

lambda_grid

# A tibble: 100 × 1
   penalty
     <dbl>
 1  0.01  
 2  0.0108
 3  0.0118
 4  0.0128
 5  0.0138
 6  0.0150
 7  0.0163
 8  0.0177
 9  0.0192
10  0.0208
# ℹ 90 more rows
…
